[
	{
		"name": "Applejack",
		"id": "123456789123456789",
		"pronouns": "she"
	},
	{
		"name": "Trixie",
		"id": "113456789123456789",
		"pronouns": "she"
	},
	{
		"name": "Trouble Shoes",
		"id": "111456789123456789",
		"pronouns": "he"
	},
	{
		"name": "Philomena",
		"id": "111156789123456789",
		"pronouns": "they"
	},
	{
		"name": "Princess Celestia",
		"id": "111116789123456789",
		"pronouns": "she"
	},
	{
		"name": "Pinkie Pie",
		"id": "111111789123456789",
		"pronouns": "she"
	},
	{
		"name": "Twilight Sparkle",
		"id": "111111189123456789",
		"pronouns": "she"
	},
	{
		"name": "Rainbow Dash",
		"id": "111111119123456789",
		"pronouns": "she"
	},
	{
		"name": "Rarity",
		"id": "111111111123456789",
		"pronouns": "she"
	},
	{
		"name": "Fluttershy",
		"id": "111111111113456789",
		"pronouns": "she"
	},
	{
		"name": "Big McIntosh",
		"id": "111111111111456789",
		"pronouns": "he"
	},
	{
		"name": "Mr. Cake",
		"id": "111111111111156789",
		"pronouns": "he"
	},
	{
		"name": "Mrs. Cake",
		"id": "111111111111116789",
		"pronouns": "she"
	},
	{
		"name": "Tank",
		"id": "111111111111111789",
		"pronouns": "he"
	},
	{
		"name": "Gummy",
		"id": "111111111111111189",
		"pronouns": "he"
	},
	{
		"name": "Spike",
		"id": "111111111111111119",
		"pronouns": "he"
	},
	{
		"name": "Princess Luna",
		"id": "111111111111111111",
		"pronouns": "she"
	},
	{
		"name": "Discord",
		"id": "111111111111111112",
		"pronouns": "he"
	}
]
