[
	{
		"message": "1 gets promoted to mod and is safe.",
		"event": "Server Takeover!"
	},
	{
		"message": "1 tries to ban Zontan, but Flutterbot bans (them/1) first!",
		"event": "Server Takeover!",
		"killed": 1,
		"deathType": "environmental"
	},
	{
		"message": "Zontan discovers that 1 and 2 were staging a coup against him, and bans them both.",
		"event": "Server Takeover!",
		"killed": [1, 2],
		"deathType": "environmental"
	},
	{
		"message": "1 tells 2 that it'd be funny to poke Zontan. It is, ultimately, not, as Zontan pokes back with a ban hammer.",
		"event": "Server Takeover!",
		"killers": 1,
		"killed": 2,
		"deathType": "murder"
	},
	{
		"message": "It was Seer all along, and 1 knows this, but when (they/1/tries/try) to speak up, Flutterbot bans (them/1) to save her weed buddy!",
		"event": "Server Takeover!",
		"killed": 1,
		"deathType": "environmental"
	},
	{
		"message": "1 and 2 elevate 3 to mod-god status, just as Zontan returns to his computer. Uh oh! Here comes the eternal mute!",
		"event": "Server Takeover!",
		"killers": [1, 2],
		"killed": 3,
		"deathType": "murder"
	}
]
