[
	{
		"message": "1 sobs while gripping a photo of (their/1) friends and family.",
		"event": "The Feast"
	},
	{
		"message": "1 slept through the Feast and wakes up swearing about missing (their/1) alarm.",
		"event": "The Feast"
	},
	{
		"message": "1 waited for someone to attack (them/1), but nobody came.",
		"event": "The Feast"
	},
	{
		"message": "1 finds an old fanfic of (theirs/1) and cringes at the poor writing.",
		"event": "The Feast"
	},
	{
		"message": "1 and 2 compare their favorite fanfic comments.",
		"event": "The Feast"
	},
	{
		"message": "1 writes a letter to 2, but forgets postage. 2 finds it anyway, and hugs it close to (their/2) chest.",
		"event": "The Feast"
	},
	{
		"message": "1 has been spared the almighty wrath of the dreaded Feast Death. Glory Be To Flutterbot, Our Eternal Savior!",
		"event": "The Feast"
	},
	{
		"message": "1 receives a great many $p1. Hooray for bombs!",
		"event": "The Feast",
		"items": [
			{
				"id": 1,
				"tags": ["explosive"],
				"quantity": 10
			}
		],
		"inventory_changes": [
			{
				"to": 1,
				"item": 1
			}
		]
	},
	{
		"message": "1 and 2 host a potluck. Only 3 was brave enough to attend.",
		"event": "The Feast"
	},
	{
		"message": "1 finds $s1. Everyone watch out!",
		"event": "The Feast",
		"items": [
			{
				"id": 1,
				"tags": ["weapon", "melee", "slashing", "piercing"],
				"quantity": 1
			}
		],
		"inventory_changes": [
			{
				"to": 1,
				"item": 1
			}
		]
	},
	{
		"message": "1 finds a gift from home. The gift was a bomb. The Hunger Games staff was kind enough to arm it, too!",
		"killed": 1,
		"deathType": "environmental",
		"event": "The Feast"
	},
	{
		"message": "1 and 2 get into a shitposting war. 1 wins!",
		"killers": 1,
		"killed": 2,
		"deathType": "murder",
		"event": "The Feast"
	},
	{
		"message": "1 and 2 get into a shitposting war. 2 wins!",
		"killers": 2,
		"killed": 1,
		"deathType": "murder",
		"event": "The Feast"
	},
	{
		"message": "1 is dead! 1 blinks up at this announcement in horror before promptly dying to make the cannon canon.",
		"killed": 1,
		"deathType": "environmental",
		"event": "The Feast"
	},
	{
		"message": "1 does not like the gift that 2 left (them/1). The gift is death. RIP.",
		"killers": 2,
		"killed": 1,
		"deathType": "murder",
		"event": "The Feast"
	},
	{
		"message": "1 receives $s1! In the back! From 2! Wait, that's not how this is supposed to work!.",
		"killers": 2,
		"killed": 1,
		"deathType": "murder",
		"event": "The Feast",
		"items": [
			{
				"id": 1,
				"owner": 2,
				"tags": ["weapon", "melee", "piercing"],
				"quantity": 1
			}
		]
	},
	{
		"message": "1 is about to escape with (their/1) loot, but a rogue Flutterbot swoops in and throws (them/1) off a cliff!",
		"killed": 1,
		"deathType": "environmental",
		"event": "The Feast"
	}
]
