[
	{
		"name": "canteen of clean water",
		"plural": "canteens of clean water",
		"article": "a",
		"tags": ["potable", "supplies", "small"]
	},
	{
		"name": "flask of green tea",
		"plural": "flasks of green tea",
		"article": "a",
		"tags": ["potable", "supplies", "small"]
	},
	{
		"name": "chicken nugget",
		"plural": "chicken nuggets",
		"article": "a",
		"tags": ["edible", "chicken nuggets"]
	},
	{
		"name": "loaf of apple bread",
		"plural": "loaves of apple bread",
		"article": "a",
		"tags": ["edible"]
	},
	{
		"name": "unidentified fruit",
		"plural": "unidentified fruit",
		"article": "an",
		"tags": ["unidentified", "poison", "tree forage"]
	},
	{
		"name": "unidentified fruit",
		"plural": "unidentified fruit",
		"article": "an",
		"tags": ["unidentified", "edible", "tree forage"]
	},
	{
		"name": "flowers",
		"plural": "flowers",
		"article": "some",
		"tags": ["flowers"]
	},
	{
		"name": "granola bar",
		"plural": "granola bars",
		"article": "a",
		"tags": ["edible", "supplies", "small"]
	},
	{
		"name": "first aid kit",
		"plural": "first aid kits",
		"article": "a",
		"tags": ["medicine", "supplies", "small"]
	},
	{
		"name": "tarp",
		"plural": "tarps",
		"article": "a",
		"tags": ["supplies"]
	},
	{
		"name": "tent",
		"plural": "tents",
		"article": "a",
		"tags": ["supplies"]
	},
	{
		"name": "coil of rope",
		"plural": "coils of rope",
		"article": "a",
		"tags": ["supplies"]
	},
	{
		"name": "sleeping bag",
		"plural": "sleeping bags",
		"article": "a",
		"tags": ["supplies"]
	},
	{
		"name": "wilderness survival kit",
		"plural": "wilderness survival kits",
		"article": "a",
		"tags": ["medicine", "supplies", "small"]
	}
]
